\relax 
\providecommand\HyperFirstAtBeginDocument{\AtBeginDocument}
\HyperFirstAtBeginDocument{\ifx\hyper@anchor\@undefined
\global\let\oldcontentsline\contentsline
\gdef\contentsline#1#2#3#4{\oldcontentsline{#1}{#2}{#3}}
\global\let\oldnewlabel\newlabel
\gdef\newlabel#1#2{\newlabelxx{#1}#2}
\gdef\newlabelxx#1#2#3#4#5#6{\oldnewlabel{#1}{{#2}{#3}}}
\AtEndDocument{\ifx\hyper@anchor\@undefined
\let\contentsline\oldcontentsline
\let\newlabel\oldnewlabel
\fi}
\fi}
\global\let\hyper@last\relax 
\gdef\HyperFirstAtBeginDocument#1{#1}
\providecommand\HyField@AuxAddToFields[1]{}
\@input{00_cover.aux}
\select@language{english}
\@writefile{toc}{\select@language{english}}
\@writefile{lof}{\select@language{english}}
\@writefile{lot}{\select@language{english}}
\@writefile{toc}{\contentsline {chapter}{\numberline {1}Summary}{i}{chapter.1}}
\@writefile{lof}{\addvspace {10\p@ }}
\@writefile{lot}{\addvspace {10\p@ }}
\@writefile{lol}{\addvspace {10\p@ }}
\@writefile{toc}{\contentsline {chapter}{\numberline {2}Introduction}{1}{chapter.2}}
\@writefile{lof}{\addvspace {10\p@ }}
\@writefile{lot}{\addvspace {10\p@ }}
\@writefile{lol}{\addvspace {10\p@ }}
\@writefile{toc}{\contentsline {chapter}{\numberline {3}GroupWorkGrades}{2}{chapter.3}}
\@writefile{lof}{\addvspace {10\p@ }}
\@writefile{lot}{\addvspace {10\p@ }}
\@writefile{lol}{\addvspace {10\p@ }}
\@writefile{toc}{\contentsline {chapter}{\numberline {4}Game rules}{3}{chapter.4}}
\@writefile{lof}{\addvspace {10\p@ }}
\@writefile{lot}{\addvspace {10\p@ }}
\@writefile{lol}{\addvspace {10\p@ }}
\@writefile{toc}{\contentsline {section}{\numberline {4.1}Setup}{3}{section.4.1}}
\@writefile{toc}{\contentsline {subsection}{\numberline {4.1.1}Board setup}{3}{subsection.4.1.1}}
\@writefile{lof}{\contentsline {figure}{\numberline {4.1}{\ignorespaces Board Overlook\relax }}{3}{figure.4.1}}
\providecommand*\caption@xref[2]{\@setref\relax\@undefined{#1}}
\newlabel{fig:boardOverlook}{{4.1}{3}{Board Overlook\relax \relax }{figure.4.1}{}}
\@writefile{toc}{\contentsline {subsection}{\numberline {4.1.2}Cards}{4}{subsection.4.1.2}}
\@writefile{lof}{\contentsline {figure}{\numberline {4.2}{\ignorespaces Primary Cards Overlook\relax }}{4}{figure.4.2}}
\newlabel{fig:pcOverlook}{{4.2}{4}{Primary Cards Overlook\relax \relax }{figure.4.2}{}}
\@writefile{lof}{\contentsline {figure}{\numberline {4.3}{\ignorespaces Secondary Cards Overlook\relax }}{4}{figure.4.3}}
\newlabel{fig:scOverlook}{{4.3}{4}{Secondary Cards Overlook\relax \relax }{figure.4.3}{}}
\@writefile{toc}{\contentsline {subsection}{\numberline {4.1.3}Init Game}{5}{subsection.4.1.3}}
\newlabel{sec:initgame}{{4.1.3}{5}{Init Game\relax }{subsection.4.1.3}{}}
\@writefile{toc}{\contentsline {section}{\numberline {4.2}Turn}{6}{section.4.2}}
\@writefile{toc}{\contentsline {subsection}{\numberline {4.2.1}What the player does each turn}{6}{subsection.4.2.1}}
\@writefile{toc}{\contentsline {subsection}{\numberline {4.2.2}Additional actions}{6}{subsection.4.2.2}}
\@writefile{toc}{\contentsline {section}{\numberline {4.3}Victory condition}{7}{section.4.3}}
\@writefile{toc}{\contentsline {subsection}{\numberline {4.3.1}When the game ends}{7}{subsection.4.3.1}}
\@writefile{toc}{\contentsline {subsection}{\numberline {4.3.2}How to win}{7}{subsection.4.3.2}}
\@writefile{toc}{\contentsline {chapter}{\numberline {5}Discussion}{8}{chapter.5}}
\@writefile{lof}{\addvspace {10\p@ }}
\@writefile{lot}{\addvspace {10\p@ }}
\@writefile{lol}{\addvspace {10\p@ }}
\@writefile{toc}{\contentsline {section}{\numberline {5.1}Player experiences}{8}{section.5.1}}
\@writefile{toc}{\contentsline {subsection}{\numberline {5.1.1}First play session}{8}{subsection.5.1.1}}
\@writefile{toc}{\contentsline {subsection}{\numberline {5.1.2}Second play session}{8}{subsection.5.1.2}}
\@writefile{toc}{\contentsline {subsection}{\numberline {5.1.3}Last play session}{9}{subsection.5.1.3}}
\@writefile{toc}{\contentsline {section}{\numberline {5.2}Review}{10}{section.5.2}}
\@writefile{toc}{\contentsline {chapter}{\numberline {6}Appendix}{11}{chapter.6}}
\@writefile{lof}{\addvspace {10\p@ }}
\@writefile{lot}{\addvspace {10\p@ }}
\@writefile{lol}{\addvspace {10\p@ }}
\newlabel{fig:sort_class_diagram}{{\caption@xref {fig:sort_class_diagram}{ on input line 4}}{11}{Appendix\relax }{chapter.6}{}}
\newlabel{fig:sort_class_diagram}{{\caption@xref {fig:sort_class_diagram}{ on input line 13}}{12}{Appendix\relax }{chapter.6}{}}
\@writefile{lof}{\contentsline {figure}{\numberline {6.1}{\ignorespaces Humans playing a from human created game\relax }}{12}{figure.6.1}}
